…
``` r
pols_df
```

    ## # A tibble: 822 × 9
    ##     year month     gov_gop sen_gop rep_gop gov_dem sen_dem rep_dem president
    ##    <int> <ord>       <dbl>   <dbl>   <dbl>   <dbl>   <dbl>   <dbl> <chr>    
    ##  1  1947 January        23      51     253      23      45     198 dem      
    ##  2  1947 February       23      51     253      23      45     198 dem      
    ##  3  1947 March          23      51     253      23      45     198 dem      
    ##  4  1947 April          23      51     253      23      45     198 dem      
    ##  5  1947 May            23      51     253      23      45     198 dem      
    ##  6  1947 June           23      51     253      23      45     198 dem      
    ##  7  1947 July           23      51     253      23      45     198 dem      
    ##  8  1947 August         23      51     253      23      45     198 dem      
    ##  9  1947 September      23      51     253      23      45     198 dem      
    ## 10  1947 October        23      51     253      23      45     198 dem      
    ## # ℹ 812 more rows
…
``` r
snp_df
```

    ## # A tibble: 787 × 3
    ##     year month     close
    ##    <dbl> <ord>     <dbl>
    ##  1  1950 January    17.0
    ##  2  1950 February   17.2
    ##  3  1950 March      17.3
    ##  4  1950 April      18.0
    ##  5  1950 May        18.8
    ##  6  1950 June       17.7
    ##  7  1950 July       17.8
    ##  8  1950 August     18.4
    ##  9  1950 September  19.5
    ## 10  1950 October    19.5
    ## # ℹ 777 more rows
…
``` r
une_df
```

    ## # A tibble: 816 × 3
    ##     year month     unemployment
    ##    <dbl> <ord>            <dbl>
    ##  1  1948 January            3.4
    ##  2  1948 February           3.8
    ##  3  1948 March              4  
    ##  4  1948 April              3.9
    ##  5  1948 May                3.5
    ##  6  1948 June               3.6
    ##  7  1948 July               3.6
    ##  8  1948 August             3.9
    ##  9  1948 September          3.8
    ## 10  1948 October            3.7
    ## # ℹ 806 more rows
…
    ## Rows: 322 Columns: 7
    ## ── Column specification ────────────────────────────────────────────────────────
    ## Delimiter: ","
    ## chr (4): County, County Code, File Date, Neighborhood
    ## dbl (3): State FIPS, County FIPS, ZipCode
    ## 
    ## ℹ Use `spec()` to retrieve the full column specification for this data.
    ## ℹ Specify the column types or set `show_col_types = FALSE` to quiet this message.

``` r
zips_missing
```

    ## # A tibble: 171 × 8
    ##    county state_fips county_code county_fips zip_code file_date neighborhood    
    ##    <chr>       <dbl> <chr>             <dbl>    <dbl> <chr>     <chr>           
    ##  1 Bronx          36 005               36005    10464 7/25/07   Southeast Bronx 
    ##  2 Bronx          36 005               36005    10474 7/25/07   Hunts Point and…
    ##  3 Bronx          36 005               36005    10475 7/25/07   Northeast Bronx 
    ##  4 Bronx          36 005               36005    10499 7/25/07   <NA>            
    ##  5 Bronx          36 005               36005    10550 7/25/07   <NA>            
    ##  6 Bronx          36 005               36005    10704 7/25/07   <NA>            
    ##  7 Bronx          36 005               36005    10705 7/25/07   <NA>            
    ##  8 Bronx          36 005               36005    10803 7/25/07   <NA>            
    ##  9 Kings          36 047               36047    11202 7/25/07   <NA>            
    ## 10 Kings          36 047               36047    11224 7/25/07   Southern Brookl…
    ## # ℹ 161 more rows
    ## # ℹ 1 more variable: postal_code <chr>
…
